%YAML 1.1
%TAG !u! tag:unity3d.com,2011:
--- !u!74 &7400000
AnimationClip:
  m_ObjectHideFlags: 0
  m_PrefabParentObject: {fileID: 0}
  m_PrefabInternal: {fileID: 0}
  m_Name: char_walk
  serializedVersion: 4
  m_AnimationType: 2
  m_Compressed: 0
  m_UseHighQualityCurve: 1
  m_RotationCurves:
  - curve:
      serializedVersion: 2
      m_Curve:
      - time: 0
        value: {x: 0, y: 0, z: 0, w: 1}
        inSlope: {x: -1.10254288, y: 0, z: 0, w: -.0101315966}
        outSlope: {x: -1.10254288, y: 0, z: 0, w: -.0101315966}
        tangentMode: 0
      - time: .0166666675
        value: {x: -.0183757152, y: 0, z: 0, w: .99983114}
        inSlope: {x: -1.13140798, y: 0, z: 0, w: -.0213414431}
        outSlope: {x: -1.13140798, y: 0, z: 0, w: -.0213414431}
        tangentMode: 0
      - time: .0333333351
        value: {x: -.0377135985, y: 0, z: 0, w: .999288619}
        inSlope: {x: -1.18161714, y: 0, z: 0, w: -.0450235531}
        outSlope: {x: -1.18161714, y: 0, z: 0, w: -.0450235531}
        tangentMode: 0
      - time: .0500000045
        value: {x: -.0577629581, y: 0, z: 0, w: .998330355}
        inSlope: {x: -1.21675467, y: 0, z: 0, w: -.0706976652}
        outSlope: {x: -1.21675467, y: 0, z: 0, w: -.0706976652}
        tangentMode: 0
      - time: .0666666701
        value: {x: -.0782720894, y: 0, z: 0, w: .99693203}
        inSlope: {x: -1.23678803, y: 0, z: 0, w: -.0972551182}
        outSlope: {x: -1.23678803, y: 0, z: 0, w: -.0972551182}
        tangentMode: 0
      - time: .0833333358
        value: {x: -.0989892259, y: 0, z: 0, w: .995088518}
        inSlope: {x: -1.24174309, y: 0, z: 0, w: -.123526469}
        outSlope: {x: -1.24174309, y: 0, z: 0, w: -.123526469}
        tangentMode: 100610828
      - time: .100000001
        value: {x: -.119663522, y: 0, z: 0, w: .992814481}
        inSlope: {x: -1.23170948, y: 0, z: 0, w: -.148306504}
        outSlope: {x: -1.23170948, y: 0, z: 0, w: -.148306504}
        tangentMode: 0
      - time: .116666667
        value: {x: -.140046209, y: 0, z: 0, w: .990144968}
        inSlope: {x: -1.20683646, y: 0, z: 0, w: -.170395344}
        outSlope: {x: -1.20683646, y: 0, z: 0, w: -.170395344}
        tangentMode: 100495928
      - time: .13333334
        value: {x: -.159891412, y: 0, z: 0, w: .987134635}
        inSlope: {x: -1.16732979, y: 0, z: 0, w: -.188643306}
        outSlope: {x: -1.16732979, y: 0, z: 0, w: -.188643306}
        tangentMode: 0
      - time: .150000006
        value: {x: -.178957209, y: 0, z: 0, w: .983856857}
        inSlope: {x: -1.11344004, y: 0, z: 0, w: -.201970354}
        outSlope: {x: -1.11344004, y: 0, z: 0, w: -.201970354}
        tangentMode: 0
      - time: .166666672
        value: {x: -.197006077, y: 0, z: 0, w: .980402291}
        inSlope: {x: -1.04544163, y: 0, z: 0, w: -.209416166}
        outSlope: {x: -1.04544163, y: 0, z: 0, w: -.209416166}
        tangentMode: 0
      - time: .183333337
        value: {x: -.213805258, y: 0, z: 0, w: .976876318}
        inSlope: {x: -.963621259, y: 0, z: 0, w: -.210170761}
        outSlope: {x: -.963621259, y: 0, z: 0, w: -.210170761}
        tangentMode: 0
      - time: .200000003
        value: {x: -.229126781, y: 0, z: 0, w: .973396599}
        inSlope: {x: -.868252158, y: 0, z: 0, w: -.203601137}
        outSlope: {x: -.868252158, y: 0, z: 0, w: -.203601137}
        tangentMode: 0
      - time: .216666669
        value: {x: -.242746994, y: 0, z: 0, w: .970089614}
        inSlope: {x: -.759566784, y: 0, z: 0, w: -.189285293}
        outSlope: {x: -.759566784, y: 0, z: 0, w: -.189285293}
        tangentMode: 0
      - time: .233333334
        value: {x: -.254445672, y: 0, z: 0, w: .96708709}
        inSlope: {x: -.637735963, y: 0, z: 0, w: -.167047992}
        outSlope: {x: -.637735963, y: 0, z: 0, w: -.167047992}
        tangentMode: 0
      - time: .25
        value: {x: -.264004856, y: 0, z: 0, w: .964521348}
        inSlope: {x: -.536209166, y: 0, z: 0, w: -.146403849}
        outSlope: {x: -.536209166, y: 0, z: 0, w: -.146403849}
        tangentMode: 0
      - time: .266666681
        value: {x: -.272319317, y: 0, z: 0, w: .96220696}
        inSlope: {x: -.488530874, y: 0, z: 0, w: -.138172984}
        outSlope: {x: -.488530874, y: 0, z: 0, w: -.138172984}
        tangentMode: 0
      - time: .283333361
        value: {x: -.280289233, y: 0, z: 0, w: .959915578}
        inSlope: {x: -.461638212, y: 0, z: 0, w: -.134657502}
        outSlope: {x: -.461638212, y: 0, z: 0, w: -.134657502}
        tangentMode: 101545056
      - time: .300000042
        value: {x: -.287707269, y: 0, z: 0, w: .957718372}
        inSlope: {x: -.422360837, y: 0, z: 0, w: -.126702085}
        outSlope: {x: -.422360837, y: 0, z: 0, w: -.126702085}
        tangentMode: 0
      - time: .316666722
        value: {x: -.294367939, y: 0, z: 0, w: .955692172}
        inSlope: {x: -.370801687, y: 0, z: 0, w: -.11400988}
        outSlope: {x: -.370801687, y: 0, z: 0, w: -.11400988}
        tangentMode: 100585432
      - time: .333333403
        value: {x: -.300067335, y: 0, z: 0, w: .95391804}
        inSlope: {x: -.307036668, y: 0, z: 0, w: -.0963788405}
        outSlope: {x: -.307036668, y: 0, z: 0, w: -.0963788405}
        tangentMode: 100606624
      - time: .350000083
        value: {x: -.304602504, y: 0, z: 0, w: .952479541}
        inSlope: {x: -.231104285, y: 0, z: 0, w: -.0737249255}
        outSlope: {x: -.231104285, y: 0, z: 0, w: -.0737249255}
        tangentMode: 0
      - time: .366666764
        value: {x: -.307770818, y: 0, z: 0, w: .95146054}
        inSlope: {x: -.142991126, y: 0, z: 0, w: -.046123229}
        outSlope: {x: -.142991126, y: 0, z: 0, w: -.046123229}
        tangentMode: 0
      - time: .383333445
        value: {x: -.309368879, y: 0, z: 0, w: .950942099}
        inSlope: {x: -.0426229462, y: 0, z: 0, w: -.0138223059}
        outSlope: {x: -.0426229462, y: 0, z: 0, w: -.0138223059}
        tangentMode: 96852264
      - time: .400000125
        value: {x: -.309191585, y: 0, z: 0, w: .950999796}
        inSlope: {x: .0701406002, y: 0, z: 0, w: .0227236561}
        outSlope: {x: .0701406002, y: 0, z: 0, w: .0227236561}
        tangentMode: 0
      - time: .416666806
        value: {x: -.307030857, y: 0, z: 0, w: .951699555}
        inSlope: {x: .195523947, y: 0, z: 0, w: .0628298}
        outSlope: {x: .195523947, y: 0, z: 0, w: .0628298}
        tangentMode: 0
      - time: .433333486
        value: {x: -.302674115, y: 0, z: 0, w: .953094125}
        inSlope: {x: .333827466, y: 0, z: 0, w: .1055502}
        outSlope: {x: .333827466, y: 0, z: 0, w: .1055502}
        tangentMode: 0
      - time: .450000167
        value: {x: -.295903265, y: 0, z: 0, w: .955217898}
        inSlope: {x: .485417724, y: 0, z: 0, w: .14964211}
        outSlope: {x: .485417724, y: 0, z: 0, w: .14964211}
        tangentMode: 96793384
      - time: .466666847
        value: {x: -.28649351, y: 0, z: 0, w: .958082199}
        inSlope: {x: .650731087, y: 0, z: 0, w: .193539098}
        outSlope: {x: .650731087, y: 0, z: 0, w: .193539098}
        tangentMode: 0
      - time: .483333528
        value: {x: -.274212211, y: 0, z: 0, w: .961669207}
        inSlope: {x: .830239534, y: 0, z: 0, w: .235310227}
        outSlope: {x: .830239534, y: 0, z: 0, w: .235310227}
        tangentMode: 0
      - time: .500000179
        value: {x: -.258818865, y: 0, z: 0, w: .965925872}
        inSlope: {x: 1.03875971, y: 0, z: 0, w: .276171237}
        outSlope: {x: 1.03875971, y: 0, z: 0, w: .276171237}
        tangentMode: 0
      - time: .51666683
        value: {x: -.23958692, y: 0, z: 0, w: .970874906}
        inSlope: {x: 1.27812922, y: 0, z: 0, w: .312599242}
        outSlope: {x: 1.27812922, y: 0, z: 0, w: .312599242}
        tangentMode: 0
      - time: .53333348
        value: {x: -.216214597, y: 0, z: 0, w: .976345837}
        inSlope: {x: 1.51459932, y: 0, z: 0, w: .332486957}
        outSlope: {x: 1.51459932, y: 0, z: 0, w: .332486957}
        tangentMode: 0
      - time: .550000131
        value: {x: -.189100325, y: 0, z: 0, w: .981957793}
        inSlope: {x: 1.72669196, y: 0, z: 0, w: .329631269}
        outSlope: {x: 1.72669196, y: 0, z: 0, w: .329631269}
        tangentMode: 0
      - time: .566666782
        value: {x: -.158658251, y: 0, z: 0, w: .987333536}
        inSlope: {x: 1.91332209, y: 0, z: 0, w: .304745734}
        outSlope: {x: 1.91332209, y: 0, z: 0, w: .304745734}
        tangentMode: 0
      - time: .583333433
        value: {x: -.125322983, y: 0, z: 0, w: .992115974}
        inSlope: {x: 2.07319403, y: 0, z: 0, w: .259459257}
        outSlope: {x: 2.07319403, y: 0, z: 0, w: .259459257}
        tangentMode: 0
      - time: .600000083
        value: {x: -.0895518437, y: 0, z: 0, w: .99598217}
        inSlope: {x: 2.20494843, y: 0, z: 0, w: .196207345}
        outSlope: {x: 2.20494843, y: 0, z: 0, w: .196207345}
        tangentMode: 0
      - time: .616666734
        value: {x: -.0518247709, y: 0, z: 0, w: .998656213}
        inSlope: {x: 2.30730486, y: 0, z: 0, w: .118137114}
        outSlope: {x: 2.30730486, y: 0, z: 0, w: .118137114}
        tangentMode: 0
      - time: .633333385
        value: {x: -.0126417484, y: 0, z: 0, w: .99992007}
        inSlope: {x: 2.37919474, y: 0, z: 0, w: .0289821923}
        outSlope: {x: 2.37919474, y: 0, z: 0, w: .0289821923}
        tangentMode: 0
      - time: .650000036
        value: {x: .0274816491, y: 0, z: 0, w: .999622285}
        inSlope: {x: 2.41986656, y: 0, z: 0, w: -.0670839027}
        outSlope: {x: 2.41986656, y: 0, z: 0, w: -.0670839027}
        tangentMode: 0
      - time: .666666687
        value: {x: .0680203885, y: 0, z: 0, w: .997683942}
        inSlope: {x: 2.42896557, y: 0, z: 0, w: -.165601537}
        outSlope: {x: 2.42896557, y: 0, z: 0, w: -.165601537}
        tangentMode: 0
      - time: .683333337
        value: {x: .10844709, y: 0, z: 0, w: .99410224}
        inSlope: {x: 2.40657902, y: 0, z: 0, w: -.261975169}
        outSlope: {x: 2.40657902, y: 0, z: 0, w: -.261975169}
        tangentMode: 0
      - time: .699999988
        value: {x: .148239613, y: 0, z: 0, w: .988951445}
        inSlope: {x: 2.35324478, y: 0, z: 0, w: -.351634383}
        outSlope: {x: 2.35324478, y: 0, z: 0, w: -.351634383}
        tangentMode: 0
      - time: .716666639
        value: {x: .186888501, y: 0, z: 0, w: .982381105}
        inSlope: {x: 2.26991987, y: 0, z: 0, w: -.430205286}
        outSlope: {x: 2.26991987, y: 0, z: 0, w: -.430205286}
        tangentMode: 0
      - time: .73333329
        value: {x: .223903537, y: 0, z: 0, w: .974611282}
        inSlope: {x: 2.15791464, y: 0, z: 0, w: -.493658304}
        outSlope: {x: 2.15791464, y: 0, z: 0, w: -.493658304}
        tangentMode: 0
      - time: .75
        value: {x: .258819044, y: 0, z: 0, w: .965925813}
        inSlope: {x: 2.09492493, y: 0, z: 0, w: -.521126807}
        outSlope: {x: 2.09492493, y: 0, z: 0, w: -.521126807}
        tangentMode: 100885248
      m_PreInfinity: 2
      m_PostInfinity: 2
    path: Hips/LeftUpLeg
  - curve:
      serializedVersion: 2
      m_Curve:
      - time: 0
        value: {x: 0, y: 0, z: 0, w: 1}
        inSlope: {x: 1.1470325, y: 0, z: 0, w: -.0109648695}
        outSlope: {x: 1.1470325, y: 0, z: 0, w: -.0109648695}
        tangentMode: 403277636
      - time: .0166666675
        value: {x: .0191172101, y: 0, z: 0, w: .999817252}
        inSlope: {x: 1.2043736, y: 0, z: 0, w: -.0241845828}
        outSlope: {x: 1.2043736, y: 0, z: 0, w: -.0241845828}
        tangentMode: 0
      - time: .0333333351
        value: {x: .0401457921, y: 0, z: 0, w: .999193847}
        inSlope: {x: 1.3042953, y: 0, z: 0, w: -.0533455536}
        outSlope: {x: 1.3042953, y: 0, z: 0, w: -.0533455536}
        tangentMode: 0
      - time: .0500000045
        value: {x: .0625937283, y: 0, z: 0, w: .998039067}
        inSlope: {x: 1.37461925, y: 0, z: 0, w: -.0868749619}
        outSlope: {x: 1.37461925, y: 0, z: 0, w: -.0868749619}
        tangentMode: 0
      - time: .0666666701
        value: {x: .0859664381, y: 0, z: 0, w: .996298015}
        inSlope: {x: 1.41525829, y: 0, z: 0, w: -.12245895}
        outSlope: {x: 1.41525829, y: 0, z: 0, w: -.12245895}
        tangentMode: 1
      - time: .0833333358
        value: {x: .109769002, y: 0, z: 0, w: .993957102}
        inSlope: {x: 1.42627001, y: 0, z: 0, w: -.157511845}
        outSlope: {x: 1.42627001, y: 0, z: 0, w: -.157511845}
        tangentMode: 0
      - time: .100000001
        value: {x: .133508772, y: 0, z: 0, w: .991047621}
        inSlope: {x: 1.40787458, y: 0, z: 0, w: -.18931748}
        outSlope: {x: 1.40787458, y: 0, z: 0, w: -.18931748}
        tangentMode: 1
      - time: .116666667
        value: {x: .156698152, y: 0, z: 0, w: .98764652}
        inSlope: {x: 1.36045015, y: 0, z: 0, w: -.215177506}
        outSlope: {x: 1.36045015, y: 0, z: 0, w: -.215177506}
        tangentMode: 0
      - time: .13333334
        value: {x: .178857118, y: 0, z: 0, w: .983875036}
        inSlope: {x: 1.28450429, y: 0, z: 0, w: -.232552856}
        outSlope: {x: 1.28450429, y: 0, z: 0, w: -.232552856}
        tangentMode: -1394488503
      - time: .150000006
        value: {x: .19951497, y: 0, z: 0, w: .979894757}
        inSlope: {x: 1.18062711, y: 0, z: 0, w: -.239204779}
        outSlope: {x: 1.18062711, y: 0, z: 0, w: -.239204779}
        tangentMode: 403278136
      - time: .166666672
        value: {x: .218211353, y: 0, z: 0, w: .975901544}
        inSlope: {x: 1.04942465, y: 0, z: 0, w: -.233328953}
        outSlope: {x: 1.04942465, y: 0, z: 0, w: -.233328953}
        tangentMode: -1394488503
      - time: .183333337
        value: {x: .234495789, y: 0, z: 0, w: .972117126}
        inSlope: {x: .891434908, y: 0, z: 0, w: -.213675514}
        outSlope: {x: .891434908, y: 0, z: 0, w: -.213675514}
        tangentMode: 403278036
      - time: .200000003
        value: {x: .247925848, y: 0, z: 0, w: .968779027}
        inSlope: {x: .707045555, y: 0, z: 0, w: -.179679409}
        outSlope: {x: .707045555, y: 0, z: 0, w: -.179679409}
        tangentMode: 1
      - time: .216666669
        value: {x: .258063972, y: 0, z: 0, w: .966127813}
        inSlope: {x: .496408999, y: 0, z: 0, w: -.131576672}
        outSlope: {x: .496408999, y: 0, z: 0, w: -.131576672}
        tangentMode: 403278332
      - time: .233333334
        value: {x: .264472812, y: 0, z: 0, w: .964393139}
        inSlope: {x: .259359807, y: 0, z: 0, w: -.0705242231}
        outSlope: {x: .259359807, y: 0, z: 0, w: -.0705242231}
        tangentMode: 403278416
      - time: .25
        value: {x: .266709298, y: 0, z: 0, w: .963777006}
        inSlope: {x: -7.68229365e-05, y: 0, z: 0, w: 2.14409083e-05}
        outSlope: {x: -7.68229365e-05, y: 0, z: 0, w: 2.14409083e-05}
        tangentMode: 0
      - time: .266666681
        value: {x: .264470249, y: 0, z: 0, w: .964393854}
        inSlope: {x: -.259644747, y: 0, z: 0, w: .0706010461}
        outSlope: {x: -.259644747, y: 0, z: 0, w: .0706010461}
        tangentMode: 646527667
      - time: .283333361
        value: {x: .258054465, y: 0, z: 0, w: .966130376}
        inSlope: {x: -.4969275, y: 0, z: 0, w: .131707072}
        outSlope: {x: -.4969275, y: 0, z: 0, w: .131707072}
        tangentMode: 0
      - time: .300000042
        value: {x: .247905985, y: 0, z: 0, w: .968784094}
        inSlope: {x: -.707734704, y: 0, z: 0, w: .179838389}
        outSlope: {x: -.707734704, y: 0, z: 0, w: .179838389}
        tangentMode: 0
      - time: .316666722
        value: {x: .234463289, y: 0, z: 0, w: .972124994}
        inSlope: {x: -.892228484, y: 0, z: 0, w: .213834465}
        outSlope: {x: -.892228484, y: 0, z: 0, w: .213834465}
        tangentMode: 1
      - time: .333333403
        value: {x: .21816501, y: 0, z: 0, w: .975911915}
        inSlope: {x: -1.05025876, y: 0, z: 0, w: .233461067}
        outSlope: {x: -1.05025876, y: 0, z: 0, w: .233461067}
        tangentMode: 100535520
      - time: .350000083
        value: {x: .199454635, y: 0, z: 0, w: .979907036}
        inSlope: {x: -1.18143475, y: 0, z: 0, w: .239293978}
        outSlope: {x: -1.18143475, y: 0, z: 0, w: .239293978}
        tangentMode: 100531940
      - time: .366666764
        value: {x: .178783819, y: 0, z: 0, w: .983888388}
        inSlope: {x: -1.28521562, y: 0, z: 0, w: .232584879}
        outSlope: {x: -1.28521562, y: 0, z: 0, w: .232584879}
        tangentMode: 0
      - time: .383333445
        value: {x: .15661408, y: 0, z: 0, w: .987659872}
        inSlope: {x: -1.36099601, y: 0, z: 0, w: .215146959}
        outSlope: {x: -1.36099601, y: 0, z: 0, w: .215146959}
        tangentMode: 0
      - time: .400000125
        value: {x: .133417249, y: 0, z: 0, w: .991059959}
        inSlope: {x: -1.40818501, y: 0, z: 0, w: .189229697}
        outSlope: {x: -1.40818501, y: 0, z: 0, w: .189229697}
        tangentMode: 99099392
      - time: .416666806
        value: {x: .109674543, y: 0, z: 0, w: .993967533}
        inSlope: {x: -1.42627335, y: 0, z: 0, w: .157379374}
        outSlope: {x: -1.42627335, y: 0, z: 0, w: .157379374}
        tangentMode: 0
      - time: .433333486
        value: {x: .0858747661, y: 0, z: 0, w: .996305943}
        inSlope: {x: -1.41488349, y: 0, z: 0, w: .122301474}
        outSlope: {x: -1.41488349, y: 0, z: 0, w: .122301474}
        tangentMode: 0
      - time: .450000167
        value: {x: .0625117198, y: 0, z: 0, w: .998044252}
        inSlope: {x: -1.3737967, y: 0, z: 0, w: .0867139548}
        outSlope: {x: -1.3737967, y: 0, z: 0, w: .0867139548}
        tangentMode: 0
      - time: .466666847
        value: {x: .040081501, y: 0, z: 0, w: .99919641}
        inSlope: {x: -1.30295634, y: 0, z: 0, w: .0532114059}
        outSlope: {x: -1.30295634, y: 0, z: 0, w: .0532114059}
        tangentMode: 0
      - time: .483333528
        value: {x: .0190798063, y: 0, z: 0, w: .999817967}
        inSlope: {x: -1.20245075, y: 0, z: 0, w: .0241076853}
        outSlope: {x: -1.20245075, y: 0, z: 0, w: .0241076853}
        tangentMode: 0
      - time: .500000179
        value: {x: -1.92644791e-07, y: 0, z: 0, w: 1}
        inSlope: {x: -1.11088049, y: 0, z: 0, w: .000627637375}
        outSlope: {x: -1.11088049, y: 0, z: 0, w: .000627637375}
        tangentMode: 0
      - time: .51666683
        value: {x: -.0179495066, y: 0, z: 0, w: .999838889}
        inSlope: {x: -1.07647932, y: 0, z: 0, w: -.0193190761}
        outSlope: {x: -1.07647932, y: 0, z: 0, w: -.0193190761}
        tangentMode: 100622984
      - time: .53333348
        value: {x: -.0358828008, y: 0, z: 0, w: .999356031}
        inSlope: {x: -1.07537961, y: 0, z: 0, w: -.0386077538}
        outSlope: {x: -1.07537961, y: 0, z: 0, w: -.0386077538}
        tangentMode: 100886416
      - time: .550000131
        value: {x: -.0537954606, y: 0, z: 0, w: .998551965}
        inSlope: {x: -1.07400322, y: 0, z: 0, w: -.0578570925}
        outSlope: {x: -1.07400322, y: 0, z: 0, w: -.0578570925}
        tangentMode: 100585720
      - time: .566666782
        value: {x: -.0716828778, y: 0, z: 0, w: .997427464}
        inSlope: {x: -1.07235146, y: 0, z: 0, w: -.0770635158}
        outSlope: {x: -1.07235146, y: 0, z: 0, w: -.0770635158}
        tangentMode: 0
      - time: .583333433
        value: {x: -.0895404741, y: 0, z: 0, w: .995983183}
        inSlope: {x: -1.07042432, y: 0, z: 0, w: -.0962288082}
        outSlope: {x: -1.07042432, y: 0, z: 0, w: -.0962288082}
        tangentMode: 0
      - time: .600000083
        value: {x: -.107363656, y: 0, z: 0, w: .99421984}
        inSlope: {x: -1.06822371, y: 0, z: 0, w: -.115352981}
        outSlope: {x: -1.06822371, y: 0, z: 0, w: -.115352981}
        tangentMode: 0
      - time: .616666734
        value: {x: -.125147894, y: 0, z: 0, w: .992138088}
        inSlope: {x: -1.06575, y: 0, z: 0, w: -.134432435}
        outSlope: {x: -1.06575, y: 0, z: 0, w: -.134432435}
        tangentMode: 0
      - time: .633333385
        value: {x: -.14288862, y: 0, z: 0, w: .989738762}
        inSlope: {x: -1.06300378, y: 0, z: 0, w: -.153463632}
        outSlope: {x: -1.06300378, y: 0, z: 0, w: -.153463632}
        tangentMode: 0
      - time: .650000036
        value: {x: -.160581321, y: 0, z: 0, w: .987022638}
        inSlope: {x: -1.0599854, y: 0, z: 0, w: -.17245011}
        outSlope: {x: -1.0599854, y: 0, z: 0, w: -.17245011}
        tangentMode: 0
      - time: .666666687
        value: {x: -.178221434, y: 0, z: 0, w: .983990431}
        inSlope: {x: -1.0566957, y: 0, z: 0, w: -.191390097}
        outSlope: {x: -1.0566957, y: 0, z: 0, w: -.191390097}
        tangentMode: 100977292
      - time: .683333337
        value: {x: -.195804477, y: 0, z: 0, w: .980642974}
        inSlope: {x: -1.0531342, y: 0, z: 0, w: -.210280031}
        outSlope: {x: -1.0531342, y: 0, z: 0, w: -.210280031}
        tangentMode: 100307288
      - time: .699999988
        value: {x: -.213325873, y: 0, z: 0, w: .976981103}
        inSlope: {x: -1.04930091, y: 0, z: 0, w: -.229118079}
        outSlope: {x: -1.04930091, y: 0, z: 0, w: -.229118079}
        tangentMode: 0
      - time: .716666639
        value: {x: -.230781138, y: 0, z: 0, w: .973005712}
        inSlope: {x: -1.04519796, y: 0, z: 0, w: -.247906089}
        outSlope: {x: -1.04519796, y: 0, z: 0, w: -.247906089}
        tangentMode: 0
      - time: .73333329
        value: {x: -.248165771, y: 0, z: 0, w: .968717575}
        inSlope: {x: -1.04082322, y: 0, z: 0, w: -.266641736}
        outSlope: {x: -1.04082322, y: 0, z: 0, w: -.266641736}
        tangentMode: 100558128
      - time: .75
        value: {x: -.265475273, y: 0, z: 0, w: .964117646}
        inSlope: {x: -1.03856742, y: 0, z: 0, w: -.275995016}
        outSlope: {x: -1.03856742, y: 0, z: 0, w: -.275995016}
        tangentMode: 0
      m_PreInfinity: 2
      m_PostInfinity: 2
    path: Hips/RightUpLeg
  m_CompressedRotationCurves: []
  m_PositionCurves:
  - curve:
      serializedVersion: 2
      m_Curve:
      - time: 0
        value: {x: .0963378996, y: -.0327324867, z: 0}
        inSlope: {x: 0, y: 0, z: 0}
        outSlope: {x: 0, y: 0, z: 0}
        tangentMode: 0
      - time: .25
        value: {x: .0963378996, y: -.0327324867, z: 0}
        inSlope: {x: -1.49011612e-08, y: -1.11758709e-07, z: -1.43051144e-08}
        outSlope: {x: -1.49011612e-08, y: -1.11758709e-07, z: -1.43051144e-08}
        tangentMode: 0
      - time: .5
        value: {x: .0963378921, y: -.0327325426, z: -7.15255721e-09}
        inSlope: {x: -1.49011612e-08, y: -1.11758709e-07, z: -1.43051144e-08}
        outSlope: {x: -1.49011612e-08, y: -1.11758709e-07, z: -1.43051144e-08}
        tangentMode: 0
      - time: .75
        value: {x: .0963378921, y: -.0327325426, z: -7.15255721e-09}
        inSlope: {x: 0, y: 0, z: 0}
        outSlope: {x: 0, y: 0, z: 0}
        tangentMode: 0
      m_PreInfinity: 2
      m_PostInfinity: 2
    path: Hips/RightUpLeg
  - curve:
      serializedVersion: 2
      m_Curve:
      - time: 0
        value: {x: -.0963378921, y: -.0327325426, z: -7.15255721e-09}
        inSlope: {x: -2.98023224e-08, y: 2.23517418e-07, z: 2.86102289e-08}
        outSlope: {x: -2.98023224e-08, y: 2.23517418e-07, z: 2.86102289e-08}
        tangentMode: 289935752
      - time: .25
        value: {x: -.0963378996, y: -.0327324867, z: 0}
        inSlope: {x: 0, y: 0, z: 0}
        outSlope: {x: 0, y: 0, z: 0}
        tangentMode: 100174556
      - time: .5
        value: {x: -.0963378921, y: -.0327325426, z: -7.15255721e-09}
        inSlope: {x: 1.49011612e-08, y: -1.11758709e-07, z: -1.43051144e-08}
        outSlope: {x: 1.49011612e-08, y: -1.11758709e-07, z: -1.43051144e-08}
        tangentMode: 75
      - time: .75
        value: {x: -.0963378921, y: -.0327325426, z: -7.15255721e-09}
        inSlope: {x: 0, y: 0, z: 0}
        outSlope: {x: 0, y: 0, z: 0}
        tangentMode: 1818318687
      m_PreInfinity: 2
      m_PostInfinity: 2
    path: Hips/LeftUpLeg
  m_ScaleCurves: []
  m_FloatCurves: []
  m_PPtrCurves: []
  m_SampleRate: 60
  m_WrapMode: 0
  m_Bounds:
    m_Center: {x: 0, y: 0, z: 0}
    m_Extent: {x: 0, y: 0, z: 0}
  m_AnimationClipSettings:
    serializedVersion: 2
    m_StartTime: 0
    m_StopTime: .75
    m_OrientationOffsetY: 0
    m_Level: 0
    m_CycleOffset: 0
    m_LoopTime: 1
    m_LoopBlend: 0
    m_LoopBlendOrientation: 0
    m_LoopBlendPositionY: 0
    m_LoopBlendPositionXZ: 0
    m_KeepOriginalOrientation: 0
    m_KeepOriginalPositionY: 1
    m_KeepOriginalPositionXZ: 0
    m_HeightFromFeet: 0
    m_Mirror: 0
  m_EditorCurves:
  - curve:
      serializedVersion: 2
      m_Curve:
      - time: 0
        value: 1
        inSlope: -.0101315966
        outSlope: -.0101315966
        tangentMode: 0
      - time: .0166666675
        value: .99983114
        inSlope: -.0213414431
        outSlope: -.0213414431
        tangentMode: 0
      - time: .0333333351
        value: .999288619
        inSlope: -.0450235531
        outSlope: -.0450235531
        tangentMode: 0
      - time: .0500000045
        value: .998330355
        inSlope: -.0706976652
        outSlope: -.0706976652
        tangentMode: 0
      - time: .0666666701
        value: .99693203
        inSlope: -.0972551182
        outSlope: -.0972551182
        tangentMode: 0
      - time: .0833333358
        value: .995088518
        inSlope: -.123526469
        outSlope: -.123526469
        tangentMode: 0
      - time: .100000001
        value: .992814481
        inSlope: -.148306504
        outSlope: -.148306504
        tangentMode: 0
      - time: .116666667
        value: .990144968
        inSlope: -.170395344
        outSlope: -.170395344
        tangentMode: 0
      - time: .13333334
        value: .987134635
        inSlope: -.188643306
        outSlope: -.188643306
        tangentMode: 0
      - time: .150000006
        value: .983856857
        inSlope: -.201970354
        outSlope: -.201970354
        tangentMode: 0
      - time: .166666672
        value: .980402291
        inSlope: -.209416166
        outSlope: -.209416166
        tangentMode: 0
      - time: .183333337
        value: .976876318
        inSlope: -.210170761
        outSlope: -.210170761
        tangentMode: 0
      - time: .200000003
        value: .973396599
        inSlope: -.203601137
        outSlope: -.203601137
        tangentMode: 0
      - time: .216666669
        value: .970089614
        inSlope: -.189285293
        outSlope: -.189285293
        tangentMode: 0
      - time: .233333334
        value: .96708709
        inSlope: -.167047992
        outSlope: -.167047992
        tangentMode: 0
      - time: .25
        value: .964521348
        inSlope: -.146403849
        outSlope: -.146403849
        tangentMode: 0
      - time: .266666681
        value: .96220696
        inSlope: -.138172984
        outSlope: -.138172984
        tangentMode: 0
      - time: .283333361
        value: .959915578
        inSlope: -.134657502
        outSlope: -.134657502
        tangentMode: 0
      - time: .300000042
        value: .957718372
        inSlope: -.126702085
        outSlope: -.126702085
        tangentMode: 0
      - time: .316666722
        value: .955692172
        inSlope: -.11400988
        outSlope: -.11400988
        tangentMode: 0
      - time: .333333403
        value: .95391804
        inSlope: -.0963788405
        outSlope: -.0963788405
        tangentMode: 0
      - time: .350000083
        value: .952479541
        inSlope: -.0737249255
        outSlope: -.0737249255
        tangentMode: 0
      - time: .366666764
        value: .95146054
        inSlope: -.046123229
        outSlope: -.046123229
        tangentMode: 0
      - time: .383333445
        value: .950942099
        inSlope: -.0138223059
        outSlope: -.0138223059
        tangentMode: 0
      - time: .400000125
        value: .950999796
        inSlope: .0227236561
        outSlope: .0227236561
        tangentMode: 0
      - time: .416666806
        value: .951699555
        inSlope: .0628298
        outSlope: .0628298
        tangentMode: 0
      - time: .433333486
        value: .953094125
        inSlope: .1055502
        outSlope: .1055502
        tangentMode: 0
      - time: .450000167
        value: .955217898
        inSlope: .14964211
        outSlope: .14964211
        tangentMode: 0
      - time: .466666847
        value: .958082199
        inSlope: .193539098
        outSlope: .193539098
        tangentMode: 0
      - time: .483333528
        value: .961669207
        inSlope: .235310227
        outSlope: .235310227
        tangentMode: 0
      - time: .500000179
        value: .965925872
        inSlope: .276171237
        outSlope: .276171237
        tangentMode: 0
      - time: .51666683
        value: .970874906
        inSlope: .312599242
        outSlope: .312599242
        tangentMode: 0
      - time: .53333348
        value: .976345837
        inSlope: .332486957
        outSlope: .332486957
        tangentMode: 0
      - time: .550000131
        value: .981957793
        inSlope: .329631269
        outSlope: .329631269
        tangentMode: 0
      - time: .566666782
        value: .987333536
        inSlope: .304745734
        outSlope: .304745734
        tangentMode: 0
      - time: .583333433
        value: .992115974
        inSlope: .259459257
        outSlope: .259459257
        tangentMode: 0
      - time: .600000083
        value: .99598217
        inSlope: .196207345
        outSlope: .196207345
        tangentMode: 0
      - time: .616666734
        value: .998656213
        inSlope: .118137114
        outSlope: .118137114
        tangentMode: 0
      - time: .633333385
        value: .99992007
        inSlope: .0289821923
        outSlope: .0289821923
        tangentMode: 0
      - time: .650000036
        value: .999622285
        inSlope: -.0670839027
        outSlope: -.0670839027
        tangentMode: 0
      - time: .666666687
        value: .997683942
        inSlope: -.165601537
        outSlope: -.165601537
        tangentMode: 0
      - time: .683333337
        value: .99410224
        inSlope: -.261975169
        outSlope: -.261975169
        tangentMode: 0
      - time: .699999988
        value: .988951445
        inSlope: -.351634383
        outSlope: -.351634383
        tangentMode: 0
      - time: .716666639
        value: .982381105
        inSlope: -.430205286
        outSlope: -.430205286
        tangentMode: 0
      - time: .73333329
        value: .974611282
        inSlope: -.493658304
        outSlope: -.493658304
        tangentMode: 0
      - time: .75
        value: .965925813
        inSlope: -.521126807
        outSlope: -.521126807
        tangentMode: 0
      m_PreInfinity: 2
      m_PostInfinity: 2
    attribute: m_LocalRotation.w
    path: Hips/LeftUpLeg
    classID: 4
    script: {fileID: 0}
  - curve:
      serializedVersion: 2
      m_Curve:
      - time: 0
        value: 0
        inSlope: 0
        outSlope: 0
        tangentMode: 0
      - time: .0166666675
        value: 0
        inSlope: 0
        outSlope: 0
        tangentMode: 0
      - time: .0333333351
        value: 0
        inSlope: 0
        outSlope: 0
        tangentMode: 0
      - time: .0500000045
        value: 0
        inSlope: 0
        outSlope: 0
        tangentMode: 0
      - time: .0666666701
        value: 0
        inSlope: 0
        outSlope: 0
        tangentMode: 0
      - time: .0833333358
        value: 0
        inSlope: 0
        outSlope: 0
        tangentMode: 0
      - time: .100000001
        value: 0
        inSlope: 0
        outSlope: 0
        tangentMode: 0
      - time: .116666667
        value: 0
        inSlope: 0
        outSlope: 0
        tangentMode: 0
      - time: .13333334
        value: 0
        inSlope: 0
        outSlope: 0
        tangentMode: 0
      - time: .150000006
        value: 0
        inSlope: 0
        outSlope: 0
        tangentMode: 0
      - time: .166666672
        value: 0
        inSlope: 0
        outSlope: 0
        tangentMode: 0
      - time: .183333337
        value: 0
        inSlope: 0
        outSlope: 0
        tangentMode: 0
      - time: .200000003
        value: 0
        inSlope: 0
        outSlope: 0
        tangentMode: 0
      - time: .216666669
        value: 0
        inSlope: 0
        outSlope: 0
        tangentMode: 0
      - time: .233333334
        value: 0
        inSlope: 0
        outSlope: 0
        tangentMode: 0
      - time: .25
        value: 0
        inSlope: 0
        outSlope: 0
        tangentMode: 0
      - time: .266666681
        value: 0
        inSlope: 0
        outSlope: 0
        tangentMode: 0
      - time: .283333361
        value: 0
        inSlope: 0
        outSlope: 0
        tangentMode: 0
      - time: .300000042
        value: 0
        inSlope: 0
        outSlope: 0
        tangentMode: 0
      - time: .316666722
        value: 0
        inSlope: 0
        outSlope: 0
        tangentMode: 0
      - time: .333333403
        value: 0
        inSlope: 0
        outSlope: 0
        tangentMode: 0
      - time: .350000083
        value: 0
        inSlope: 0
        outSlope: 0
        tangentMode: 0
      - time: .366666764
        value: 0
        inSlope: 0
        outSlope: 0
        tangentMode: 0
      - time: .383333445
        value: 0
        inSlope: 0
        outSlope: 0
        tangentMode: 0
      - time: .400000125
        value: 0
        inSlope: 0
        outSlope: 0
        tangentMode: 0
      - time: .416666806
        value: 0
        inSlope: 0
        outSlope: 0
        tangentMode: 0
      - time: .433333486
        value: 0
        inSlope: 0
        outSlope: 0
        tangentMode: 0
      - time: .450000167
        value: 0
        inSlope: 0
        outSlope: 0
        tangentMode: 0
      - time: .466666847
        value: 0
        inSlope: 0
        outSlope: 0
        tangentMode: 0
      - time: .483333528
        value: 0
        inSlope: 0
        outSlope: 0
        tangentMode: 0
      - time: .500000179
        value: 0
        inSlope: 0
        outSlope: 0
        tangentMode: 0
      - time: .51666683
        value: 0
        inSlope: 0
        outSlope: 0
        tangentMode: 0
      - time: .53333348
        value: 0
        inSlope: 0
        outSlope: 0
        tangentMode: 0
      - time: .550000131
        value: 0
        inSlope: 0
        outSlope: 0
        tangentMode: 0
      - time: .566666782
        value: 0
        inSlope: 0
        outSlope: 0
        tangentMode: 0
      - time: .583333433
        value: 0
        inSlope: 0
        outSlope: 0
        tangentMode: 0
      - time: .600000083
        value: 0
        inSlope: 0
        outSlope: 0
        tangentMode: 0
      - time: .616666734
        value: 0
        inSlope: 0
        outSlope: 0
        tangentMode: 0
      - time: .633333385
        value: 0
        inSlope: 0
        outSlope: 0
        tangentMode: 0
      - time: .650000036
        value: 0
        inSlope: 0
        outSlope: 0
        tangentMode: 0
      - time: .666666687
        value: 0
        inSlope: 0
        outSlope: 0
        tangentMode: 0
      - time: .683333337
        value: 0
        inSlope: 0
        outSlope: 0
        tangentMode: 0
      - time: .699999988
        value: 0
        inSlope: 0
        outSlope: 0
        tangentMode: 0
      - time: .716666639
        value: 0
        inSlope: 0
        outSlope: 0
        tangentMode: 0
      - time: .73333329
        value: 0
        inSlope: 0
        outSlope: 0
        tangentMode: 0
      - time: .75
        value: 0
        inSlope: 0
        outSlope: 0
        tangentMode: 0
      m_PreInfinity: 2
      m_PostInfinity: 2
    attribute: m_LocalRotation.z
    path: Hips/LeftUpLeg
    classID: 4
    script: {fileID: 0}
  - curve:
      serializedVersion: 2
      m_Curve:
      - time: 0
        value: 0
        inSlope: 0
        outSlope: 0
        tangentMode: 0
      - time: .0166666675
        value: 0
        inSlope: 0
        outSlope: 0
        tangentMode: 0
      - time: .0333333351
        value: 0
        inSlope: 0
        outSlope: 0
        tangentMode: 0
      - time: .0500000045
        value: 0
        inSlope: 0
        outSlope: 0
        tangentMode: 0
      - time: .0666666701
        value: 0
        inSlope: 0
        outSlope: 0
        tangentMode: 0
      - time: .0833333358
        value: 0
        inSlope: 0
        outSlope: 0
        tangentMode: 0
      - time: .100000001
        value: 0
        inSlope: 0
        outSlope: 0
        tangentMode: 0
      - time: .116666667
        value: 0
        inSlope: 0
        outSlope: 0
        tangentMode: 0
      - time: .13333334
        value: 0
        inSlope: 0
        outSlope: 0
        tangentMode: 0
      - time: .150000006
        value: 0
        inSlope: 0
        outSlope: 0
        tangentMode: 0
      - time: .166666672
        value: 0
        inSlope: 0
        outSlope: 0
        tangentMode: 0
      - time: .183333337
        value: 0
        inSlope: 0
        outSlope: 0
        tangentMode: 0
      - time: .200000003
        value: 0
        inSlope: 0
        outSlope: 0
        tangentMode: 0
      - time: .216666669
        value: 0
        inSlope: 0
        outSlope: 0
        tangentMode: 0
      - time: .233333334
        value: 0
        inSlope: 0
        outSlope: 0
        tangentMode: 0
      - time: .25
        value: 0
        inSlope: 0
        outSlope: 0
        tangentMode: 0
      - time: .266666681
        value: 0
        inSlope: 0
        outSlope: 0
        tangentMode: 0
      - time: .283333361
        value: 0
        inSlope: 0
        outSlope: 0
        tangentMode: 0
      - time: .300000042
        value: 0
        inSlope: 0
        outSlope: 0
        tangentMode: 0
      - time: .316666722
        value: 0
        inSlope: 0
        outSlope: 0
        tangentMode: 0
      - time: .333333403
        value: 0
        inSlope: 0
        outSlope: 0
        tangentMode: 0
      - time: .350000083
        value: 0
        inSlope: 0
        outSlope: 0
        tangentMode: 0
      - time: .366666764
        value: 0
        inSlope: 0
        outSlope: 0
        tangentMode: 0
      - time: .383333445
        value: 0
        inSlope: 0
        outSlope: 0
        tangentMode: 0
      - time: .400000125
        value: 0
        inSlope: 0
        outSlope: 0
        tangentMode: 0
      - time: .416666806
        value: 0
        inSlope: 0
        outSlope: 0
        tangentMode: 0
      - time: .433333486
        value: 0
        inSlope: 0
        outSlope: 0
        tangentMode: 0
      - time: .450000167
        value: 0
        inSlope: 0
        outSlope: 0
        tangentMode: 0
      - time: .466666847
        value: 0
        inSlope: 0
        outSlope: 0
        tangentMode: 0
      - time: .483333528
        value: 0
        inSlope: 0
        outSlope: 0
        tangentMode: 0
      - time: .500000179
        value: 0
        inSlope: 0
        outSlope: 0
        tangentMode: 0
      - time: .51666683
        value: 0
        inSlope: 0
        outSlope: 0
        tangentMode: 0
      - time: .53333348
        value: 0
        inSlope: 0
        outSlope: 0
        tangentMode: 0
      - time: .550000131
        value: 0
        inSlope: 0
        outSlope: 0
        tangentMode: 0
      - time: .566666782
        value: 0
        inSlope: 0
        outSlope: 0
        tangentMode: 0
      - time: .583333433
        value: 0
        inSlope: 0
        outSlope: 0
        tangentMode: 0
      - time: .600000083
        value: 0
        inSlope: 0
        outSlope: 0
        tangentMode: 0
      - time: .616666734
        value: 0
        inSlope: 0
        outSlope: 0
        tangentMode: 0
      - time: .633333385
        value: 0
        inSlope: 0
        outSlope: 0
        tangentMode: 0
      - time: .650000036
        value: 0
        inSlope: 0
        outSlope: 0
        tangentMode: 0
      - time: .666666687
        value: 0
        inSlope: 0
        outSlope: 0
        tangentMode: 0
      - time: .683333337
        value: 0
        inSlope: 0
        outSlope: 0
        tangentMode: 0
      - time: .699999988
        value: 0
        inSlope: 0
        outSlope: 0
        tangentMode: 0
      - time: .716666639
        value: 0
        inSlope: 0
        outSlope: 0
        tangentMode: 0
      - time: .73333329
        value: 0
        inSlope: 0
        outSlope: 0
        tangentMode: 0
      - time: .75
        value: 0
        inSlope: 0
        outSlope: 0
        tangentMode: 0
      m_PreInfinity: 2
      m_PostInfinity: 2
    attribute: m_LocalRotation.y
    path: Hips/LeftUpLeg
    classID: 4
    script: {fileID: 0}
  - curve:
      serializedVersion: 2
      m_Curve:
      - time: 0
        value: 0
        inSlope: -1.10254288
        outSlope: -1.10254288
        tangentMode: 0
      - time: .0166666675
        value: -.0183757152
        inSlope: -1.13140798
        outSlope: -1.13140798
        tangentMode: 0
      - time: .0333333351
        value: -.0377135985
        inSlope: -1.18161714
        outSlope: -1.18161714
        tangentMode: 0
      - time: .0500000045
        value: -.0577629581
        inSlope: -1.21675467
        outSlope: -1.21675467
        tangentMode: 0
      - time: .0666666701
        value: -.0782720894
        inSlope: -1.23678803
        outSlope: -1.23678803
        tangentMode: 0
      - time: .0833333358
        value: -.0989892259
        inSlope: -1.24174309
        outSlope: -1.24174309
        tangentMode: 0
      - time: .100000001
        value: -.119663522
        inSlope: -1.23170948
        outSlope: -1.23170948
        tangentMode: 0
      - time: .116666667
        value: -.140046209
        inSlope: -1.20683646
        outSlope: -1.20683646
        tangentMode: 0
      - time: .13333334
        value: -.159891412
        inSlope: -1.16732979
        outSlope: -1.16732979
        tangentMode: 0
      - time: .150000006
        value: -.178957209
        inSlope: -1.11344004
        outSlope: -1.11344004
        tangentMode: 0
      - time: .166666672
        value: -.197006077
        inSlope: -1.04544163
        outSlope: -1.04544163
        tangentMode: 0
      - time: .183333337
        value: -.213805258
        inSlope: -.963621259
        outSlope: -.963621259
        tangentMode: 0
      - time: .200000003
        value: -.229126781
        inSlope: -.868252158
        outSlope: -.868252158
        tangentMode: 0
      - time: .216666669
        value: -.242746994
        inSlope: -.759566784
        outSlope: -.759566784
        tangentMode: 0
      - time: .233333334
        value: -.254445672
        inSlope: -.637735963
        outSlope: -.637735963
        tangentMode: 0
      - time: .25
        value: -.264004856
        inSlope: -.536209166
        outSlope: -.536209166
        tangentMode: 0
      - time: .266666681
        value: -.272319317
        inSlope: -.488530874
        outSlope: -.488530874
        tangentMode: 0
      - time: .283333361
        value: -.280289233
        inSlope: -.461638212
        outSlope: -.461638212
        tangentMode: 0
      - time: .300000042
        value: -.287707269
        inSlope: -.422360837
        outSlope: -.422360837
        tangentMode: 0
      - time: .316666722
        value: -.294367939
        inSlope: -.370801687
        outSlope: -.370801687
        tangentMode: 0
      - time: .333333403
        value: -.300067335
        inSlope: -.307036668
        outSlope: -.307036668
        tangentMode: 0
      - time: .350000083
        value: -.304602504
        inSlope: -.231104285
        outSlope: -.231104285
        tangentMode: 0
      - time: .366666764
        value: -.307770818
        inSlope: -.142991126
        outSlope: -.142991126
        tangentMode: 0
      - time: .383333445
        value: -.309368879
        inSlope: -.0426229462
        outSlope: -.0426229462
        tangentMode: 0
      - time: .400000125
        value: -.309191585
        inSlope: .0701406002
        outSlope: .0701406002
        tangentMode: 0
      - time: .416666806
        value: -.307030857
        inSlope: .195523947
        outSlope: .195523947
        tangentMode: 0
      - time: .433333486
        value: -.302674115
        inSlope: .333827466
        outSlope: .333827466
        tangentMode: 0
      - time: .450000167
        value: -.295903265
        inSlope: .485417724
        outSlope: .485417724
        tangentMode: 0
      - time: .466666847
        value: -.28649351
        inSlope: .650731087
        outSlope: .650731087
        tangentMode: 0
      - time: .483333528
        value: -.274212211
        inSlope: .830239534
        outSlope: .830239534
        tangentMode: 0
      - time: .500000179
        value: -.258818865
        inSlope: 1.03875971
        outSlope: 1.03875971
        tangentMode: 0
      - time: .51666683
        value: -.23958692
        inSlope: 1.27812922
        outSlope: 1.27812922
        tangentMode: 0
      - time: .53333348
        value: -.216214597
        inSlope: 1.51459932
        outSlope: 1.51459932
        tangentMode: 0
      - time: .550000131
        value: -.189100325
        inSlope: 1.72669196
        outSlope: 1.72669196
        tangentMode: 0
      - time: .566666782
        value: -.158658251
        inSlope: 1.91332209
        outSlope: 1.91332209
        tangentMode: 0
      - time: .583333433
        value: -.125322983
        inSlope: 2.07319403
        outSlope: 2.07319403
        tangentMode: 0
      - time: .600000083
        value: -.0895518437
        inSlope: 2.20494843
        outSlope: 2.20494843
        tangentMode: 0
      - time: .616666734
        value: -.0518247709
        inSlope: 2.30730486
        outSlope: 2.30730486
        tangentMode: 0
      - time: .633333385
        value: -.0126417484
        inSlope: 2.37919474
        outSlope: 2.37919474
        tangentMode: 0
      - time: .650000036
        value: .0274816491
        inSlope: 2.41986656
        outSlope: 2.41986656
        tangentMode: 0
      - time: .666666687
        value: .0680203885
        inSlope: 2.42896557
        outSlope: 2.42896557
        tangentMode: 0
      - time: .683333337
        value: .10844709
        inSlope: 2.40657902
        outSlope: 2.40657902
        tangentMode: 0
      - time: .699999988
        value: .148239613
        inSlope: 2.35324478
        outSlope: 2.35324478
        tangentMode: 0
      - time: .716666639
        value: .186888501
        inSlope: 2.26991987
        outSlope: 2.26991987
        tangentMode: 0
      - time: .73333329
        value: .223903537
        inSlope: 2.15791464
        outSlope: 2.15791464
        tangentMode: 0
      - time: .75
        value: .258819044
        inSlope: 2.09492493
        outSlope: 2.09492493
        tangentMode: 0
      m_PreInfinity: 2
      m_PostInfinity: 2
    attribute: m_LocalRotation.x
    path: Hips/LeftUpLeg
    classID: 4
    script: {fileID: 0}
  - curve:
      serializedVersion: 2
      m_Curve:
      - time: 0
        value: 0
        inSlope: 0
        outSlope: 0
        tangentMode: 10
      - time: .25
        value: 0
        inSlope: -1.43051144e-08
        outSlope: -1.43051144e-08
        tangentMode: 10
      - time: .5
        value: -7.15255721e-09
        inSlope: -1.43051144e-08
        outSlope: -1.43051144e-08
        tangentMode: 10
      - time: .75
        value: -7.15255721e-09
        inSlope: 0
        outSlope: 0
        tangentMode: 10
      m_PreInfinity: 2
      m_PostInfinity: 2
    attribute: m_LocalPosition.z
    path: Hips/RightUpLeg
    classID: 4
    script: {fileID: 0}
  - curve:
      serializedVersion: 2
      m_Curve:
      - time: 0
        value: -.0327324867
        inSlope: 0
        outSlope: 0
        tangentMode: 10
      - time: .25
        value: -.0327324867
        inSlope: -1.11758709e-07
        outSlope: -1.11758709e-07
        tangentMode: 10
      - time: .5
        value: -.0327325426
        inSlope: -1.11758709e-07
        outSlope: -1.11758709e-07
        tangentMode: 10
      - time: .75
        value: -.0327325426
        inSlope: 0
        outSlope: 0
        tangentMode: 10
      m_PreInfinity: 2
      m_PostInfinity: 2
    attribute: m_LocalPosition.y
    path: Hips/RightUpLeg
    classID: 4
    script: {fileID: 0}
  - curve:
      serializedVersion: 2
      m_Curve:
      - time: 0
        value: .0963378996
        inSlope: 0
        outSlope: 0
        tangentMode: 10
      - time: .25
        value: .0963378996
        inSlope: -1.49011612e-08
        outSlope: -1.49011612e-08
        tangentMode: 10
      - time: .5
        value: .0963378921
        inSlope: -1.49011612e-08
        outSlope: -1.49011612e-08
        tangentMode: 10
      - time: .75
        value: .0963378921
        inSlope: 0
        outSlope: 0
        tangentMode: 10
      m_PreInfinity: 2
      m_PostInfinity: 2
    attribute: m_LocalPosition.x
    path: Hips/RightUpLeg
    classID: 4
    script: {fileID: 0}
  - curve:
      serializedVersion: 2
      m_Curve:
      - time: 0
        value: -7.15255721e-09
        inSlope: 2.86102289e-08
        outSlope: 2.86102289e-08
        tangentMode: 10
      - time: .25
        value: 0
        inSlope: 0
        outSlope: 0
        tangentMode: 10
      - time: .5
        value: -7.15255721e-09
        inSlope: -1.43051144e-08
        outSlope: -1.43051144e-08
        tangentMode: 10
      - time: .75
        value: -7.15255721e-09
        inSlope: 0
        outSlope: 0
        tangentMode: 10
      m_PreInfinity: 2
      m_PostInfinity: 2
    attribute: m_LocalPosition.z
    path: Hips/LeftUpLeg
    classID: 4
    script: {fileID: 0}
  - curve:
      serializedVersion: 2
      m_Curve:
      - time: 0
        value: -.0327325426
        inSlope: 2.23517418e-07
        outSlope: 2.23517418e-07
        tangentMode: 10
      - time: .25
        value: -.0327324867
        inSlope: 0
        outSlope: 0
        tangentMode: 10
      - time: .5
        value: -.0327325426
        inSlope: -1.11758709e-07
        outSlope: -1.11758709e-07
        tangentMode: 10
      - time: .75
        value: -.0327325426
        inSlope: 0
        outSlope: 0
        tangentMode: 10
      m_PreInfinity: 2
      m_PostInfinity: 2
    attribute: m_LocalPosition.y
    path: Hips/LeftUpLeg
    classID: 4
    script: {fileID: 0}
  - curve:
      serializedVersion: 2
      m_Curve:
      - time: 0
        value: -.0963378921
        inSlope: -2.98023224e-08
        outSlope: -2.98023224e-08
        tangentMode: 10
      - time: .25
        value: -.0963378996
        inSlope: 0
        outSlope: 0
        tangentMode: 10
      - time: .5
        value: -.0963378921
        inSlope: 1.49011612e-08
        outSlope: 1.49011612e-08
        tangentMode: 10
      - time: .75
        value: -.0963378921
        inSlope: 0
        outSlope: 0
        tangentMode: 10
      m_PreInfinity: 2
      m_PostInfinity: 2
    attribute: m_LocalPosition.x
    path: Hips/LeftUpLeg
    classID: 4
    script: {fileID: 0}
  - curve:
      serializedVersion: 2
      m_Curve:
      - time: 0
        value: 0
        inSlope: 1.1470325
        outSlope: 1.1470325
        tangentMode: 0
      - time: .0166666675
        value: .0191172101
        inSlope: 1.2043736
        outSlope: 1.2043736
        tangentMode: 0
      - time: .0333333351
        value: .0401457921
        inSlope: 1.3042953
        outSlope: 1.3042953
        tangentMode: 0
      - time: .0500000045
        value: .0625937283
        inSlope: 1.37461925
        outSlope: 1.37461925
        tangentMode: 0
      - time: .0666666701
        value: .0859664381
        inSlope: 1.41525829
        outSlope: 1.41525829
        tangentMode: 0
      - time: .0833333358
        value: .109769002
        inSlope: 1.42627001
        outSlope: 1.42627001
        tangentMode: 0
      - time: .100000001
        value: .133508772
        inSlope: 1.40787458
        outSlope: 1.40787458
        tangentMode: 0
      - time: .116666667
        value: .156698152
        inSlope: 1.36045015
        outSlope: 1.36045015
        tangentMode: 0
      - time: .13333334
        value: .178857118
        inSlope: 1.28450429
        outSlope: 1.28450429
        tangentMode: 0
      - time: .150000006
        value: .19951497
        inSlope: 1.18062711
        outSlope: 1.18062711
        tangentMode: 0
      - time: .166666672
        value: .218211353
        inSlope: 1.04942465
        outSlope: 1.04942465
        tangentMode: 0
      - time: .183333337
        value: .234495789
        inSlope: .891434908
        outSlope: .891434908
        tangentMode: 0
      - time: .200000003
        value: .247925848
        inSlope: .707045555
        outSlope: .707045555
        tangentMode: 0
      - time: .216666669
        value: .258063972
        inSlope: .496408999
        outSlope: .496408999
        tangentMode: 0
      - time: .233333334
        value: .264472812
        inSlope: .259359807
        outSlope: .259359807
        tangentMode: 0
      - time: .25
        value: .266709298
        inSlope: -7.68229365e-05
        outSlope: -7.68229365e-05
        tangentMode: 0
      - time: .266666681
        value: .264470249
        inSlope: -.259644747
        outSlope: -.259644747
        tangentMode: 0
      - time: .283333361
        value: .258054465
        inSlope: -.4969275
        outSlope: -.4969275
        tangentMode: 0
      - time: .300000042
        value: .247905985
        inSlope: -.707734704
        outSlope: -.707734704
        tangentMode: 0
      - time: .316666722
        value: .234463289
        inSlope: -.892228484
        outSlope: -.892228484
        tangentMode: 0
      - time: .333333403
        value: .21816501
        inSlope: -1.05025876
        outSlope: -1.05025876
        tangentMode: 0
      - time: .350000083
        value: .199454635
        inSlope: -1.18143475
        outSlope: -1.18143475
        tangentMode: 0
      - time: .366666764
        value: .178783819
        inSlope: -1.28521562
        outSlope: -1.28521562
        tangentMode: 0
      - time: .383333445
        value: .15661408
        inSlope: -1.36099601
        outSlope: -1.36099601
        tangentMode: 0
      - time: .400000125
        value: .133417249
        inSlope: -1.40818501
        outSlope: -1.40818501
        tangentMode: 0
      - time: .416666806
        value: .109674543
        inSlope: -1.42627335
        outSlope: -1.42627335
        tangentMode: 0
      - time: .433333486
        value: .0858747661
        inSlope: -1.41488349
        outSlope: -1.41488349
        tangentMode: 0
      - time: .450000167
        value: .0625117198
        inSlope: -1.3737967
        outSlope: -1.3737967
        tangentMode: 0
      - time: .466666847
        value: .040081501
        inSlope: -1.30295634
        outSlope: -1.30295634
        tangentMode: 0
      - time: .483333528
        value: .0190798063
        inSlope: -1.20245075
        outSlope: -1.20245075
        tangentMode: 0
      - time: .500000179
        value: -1.92644791e-07
        inSlope: -1.11088049
        outSlope: -1.11088049
        tangentMode: 0
      - time: .51666683
        value: -.0179495066
        inSlope: -1.07647932
        outSlope: -1.07647932
        tangentMode: 0
      - time: .53333348
        value: -.0358828008
        inSlope: -1.07537961
        outSlope: -1.07537961
        tangentMode: 0
      - time: .550000131
        value: -.0537954606
        inSlope: -1.07400322
        outSlope: -1.07400322
        tangentMode: 0
      - time: .566666782
        value: -.0716828778
        inSlope: -1.07235146
        outSlope: -1.07235146
        tangentMode: 0
      - time: .583333433
        value: -.0895404741
        inSlope: -1.07042432
        outSlope: -1.07042432
        tangentMode: 0
      - time: .600000083
        value: -.107363656
        inSlope: -1.06822371
        outSlope: -1.06822371
        tangentMode: 0
      - time: .616666734
        value: -.125147894
        inSlope: -1.06575
        outSlope: -1.06575
        tangentMode: 0
      - time: .633333385
        value: -.14288862
        inSlope: -1.06300378
        outSlope: -1.06300378
        tangentMode: 0
      - time: .650000036
        value: -.160581321
        inSlope: -1.0599854
        outSlope: -1.0599854
        tangentMode: 0
      - time: .666666687
        value: -.178221434
        inSlope: -1.0566957
        outSlope: -1.0566957
        tangentMode: 0
      - time: .683333337
        value: -.195804477
        inSlope: -1.0531342
        outSlope: -1.0531342
        tangentMode: 0
      - time: .699999988
        value: -.213325873
        inSlope: -1.04930091
        outSlope: -1.04930091
        tangentMode: 0
      - time: .716666639
        value: -.230781138
        inSlope: -1.04519796
        outSlope: -1.04519796
        tangentMode: 0
      - time: .73333329
        value: -.248165771
        inSlope: -1.04082322
        outSlope: -1.04082322
        tangentMode: 0
      - time: .75
        value: -.265475273
        inSlope: -1.03856742
        outSlope: -1.03856742
        tangentMode: 0
      m_PreInfinity: 2
      m_PostInfinity: 2
    attribute: m_LocalRotation.x
    path: Hips/RightUpLeg
    classID: 4
    script: {fileID: 0}
  - curve:
      serializedVersion: 2
      m_Curve:
      - time: 0
        value: 0
        inSlope: 0
        outSlope: 0
        tangentMode: 0
      - time: .0166666675
        value: 0
        inSlope: 0
        outSlope: 0
        tangentMode: 0
      - time: .0333333351
        value: 0
        inSlope: 0
        outSlope: 0
        tangentMode: 0
      - time: .0500000045
        value: 0
        inSlope: 0
        outSlope: 0
        tangentMode: 0
      - time: .0666666701
        value: 0
        inSlope: 0
        outSlope: 0
        tangentMode: 0
      - time: .0833333358
        value: 0
        inSlope: 0
        outSlope: 0
        tangentMode: 0
      - time: .100000001
        value: 0
        inSlope: 0
        outSlope: 0
        tangentMode: 0
      - time: .116666667
        value: 0
        inSlope: 0
        outSlope: 0
        tangentMode: 0
      - time: .13333334
        value: 0
        inSlope: 0
        outSlope: 0
        tangentMode: 0
      - time: .150000006
        value: 0
        inSlope: 0
        outSlope: 0
        tangentMode: 0
      - time: .166666672
        value: 0
        inSlope: 0
        outSlope: 0
        tangentMode: 0
      - time: .183333337
        value: 0
        inSlope: 0
        outSlope: 0
        tangentMode: 0
      - time: .200000003
        value: 0
        inSlope: 0
        outSlope: 0
        tangentMode: 0
      - time: .216666669
        value: 0
        inSlope: 0
        outSlope: 0
        tangentMode: 0
      - time: .233333334
        value: 0
        inSlope: 0
        outSlope: 0
        tangentMode: 0
      - time: .25
        value: 0
        inSlope: 0
        outSlope: 0
        tangentMode: 0
      - time: .266666681
        value: 0
        inSlope: 0
        outSlope: 0
        tangentMode: 0
      - time: .283333361
        value: 0
        inSlope: 0
        outSlope: 0
        tangentMode: 0
      - time: .300000042
        value: 0
        inSlope: 0
        outSlope: 0
        tangentMode: 0
      - time: .316666722
        value: 0
        inSlope: 0
        outSlope: 0
        tangentMode: 0
      - time: .333333403
        value: 0
        inSlope: 0
        outSlope: 0
        tangentMode: 0
      - time: .350000083
        value: 0
        inSlope: 0
        outSlope: 0
        tangentMode: 0
      - time: .366666764
        value: 0
        inSlope: 0
        outSlope: 0
        tangentMode: 0
      - time: .383333445
        value: 0
        inSlope: 0
        outSlope: 0
        tangentMode: 0
      - time: .400000125
        value: 0
        inSlope: 0
        outSlope: 0
        tangentMode: 0
      - time: .416666806
        value: 0
        inSlope: 0
        outSlope: 0
        tangentMode: 0
      - time: .433333486
        value: 0
        inSlope: 0
        outSlope: 0
        tangentMode: 0
      - time: .450000167
        value: 0
        inSlope: 0
        outSlope: 0
        tangentMode: 0
      - time: .466666847
        value: 0
        inSlope: 0
        outSlope: 0
        tangentMode: 0
      - time: .483333528
        value: 0
        inSlope: 0
        outSlope: 0
        tangentMode: 0
      - time: .500000179
        value: 0
        inSlope: 0
        outSlope: 0
        tangentMode: 0
      - time: .51666683
        value: 0
        inSlope: 0
        outSlope: 0
        tangentMode: 0
      - time: .53333348
        value: 0
        inSlope: 0
        outSlope: 0
        tangentMode: 0
      - time: .550000131
        value: 0
        inSlope: 0
        outSlope: 0
        tangentMode: 0
      - time: .566666782
        value: 0
        inSlope: 0
        outSlope: 0
        tangentMode: 0
      - time: .583333433
        value: 0
        inSlope: 0
        outSlope: 0
        tangentMode: 0
      - time: .600000083
        value: 0
        inSlope: 0
        outSlope: 0
        tangentMode: 0
      - time: .616666734
        value: 0
        inSlope: 0
        outSlope: 0
        tangentMode: 0
      - time: .633333385
        value: 0
        inSlope: 0
        outSlope: 0
        tangentMode: 0
      - time: .650000036
        value: 0
        inSlope: 0
        outSlope: 0
        tangentMode: 0
      - time: .666666687
        value: 0
        inSlope: 0
        outSlope: 0
        tangentMode: 0
      - time: .683333337
        value: 0
        inSlope: 0
        outSlope: 0
        tangentMode: 0
      - time: .699999988
        value: 0
        inSlope: 0
        outSlope: 0
        tangentMode: 0
      - time: .716666639
        value: 0
        inSlope: 0
        outSlope: 0
        tangentMode: 0
      - time: .73333329
        value: 0
        inSlope: 0
        outSlope: 0
        tangentMode: 0
      - time: .75
        value: 0
        inSlope: 0
        outSlope: 0
        tangentMode: 0
      m_PreInfinity: 2
      m_PostInfinity: 2
    attribute: m_LocalRotation.y
    path: Hips/RightUpLeg
    classID: 4
    script: {fileID: 0}
  - curve:
      serializedVersion: 2
      m_Curve:
      - time: 0
        value: 0
        inSlope: 0
        outSlope: 0
        tangentMode: 0
      - time: .0166666675
        value: 0
        inSlope: 0
        outSlope: 0
        tangentMode: 0
      - time: .0333333351
        value: 0
        inSlope: 0
        outSlope: 0
        tangentMode: 0
      - time: .0500000045
        value: 0
        inSlope: 0
        outSlope: 0
        tangentMode: 0
      - time: .0666666701
        value: 0
        inSlope: 0
        outSlope: 0
        tangentMode: 0
      - time: .0833333358
        value: 0
        inSlope: 0
        outSlope: 0
        tangentMode: 0
      - time: .100000001
        value: 0
        inSlope: 0
        outSlope: 0
        tangentMode: 0
      - time: .116666667
        value: 0
        inSlope: 0
        outSlope: 0
        tangentMode: 0
      - time: .13333334
        value: 0
        inSlope: 0
        outSlope: 0
        tangentMode: 0
      - time: .150000006
        value: 0
        inSlope: 0
        outSlope: 0
        tangentMode: 0
      - time: .166666672
        value: 0
        inSlope: 0
        outSlope: 0
        tangentMode: 0
      - time: .183333337
        value: 0
        inSlope: 0
        outSlope: 0
        tangentMode: 0
      - time: .200000003
        value: 0
        inSlope: 0
        outSlope: 0
        tangentMode: 0
      - time: .216666669
        value: 0
        inSlope: 0
        outSlope: 0
        tangentMode: 0
      - time: .233333334
        value: 0
        inSlope: 0
        outSlope: 0
        tangentMode: 0
      - time: .25
        value: 0
        inSlope: 0
        outSlope: 0
        tangentMode: 0
      - time: .266666681
        value: 0
        inSlope: 0
        outSlope: 0
        tangentMode: 0
      - time: .283333361
        value: 0
        inSlope: 0
        outSlope: 0
        tangentMode: 0
      - time: .300000042
        value: 0
        inSlope: 0
        outSlope: 0
        tangentMode: 0
      - time: .316666722
        value: 0
        inSlope: 0
        outSlope: 0
        tangentMode: 0
      - time: .333333403
        value: 0
        inSlope: 0
        outSlope: 0
        tangentMode: 0
      - time: .350000083
        value: 0
        inSlope: 0
        outSlope: 0
        tangentMode: 0
      - time: .366666764
        value: 0
        inSlope: 0
        outSlope: 0
        tangentMode: 0
      - time: .383333445
        value: 0
        inSlope: 0
        outSlope: 0
        tangentMode: 0
      - time: .400000125
        value: 0
        inSlope: 0
        outSlope: 0
        tangentMode: 0
      - time: .416666806
        value: 0
        inSlope: 0
        outSlope: 0
        tangentMode: 0
      - time: .433333486
        value: 0
        inSlope: 0
        outSlope: 0
        tangentMode: 0
      - time: .450000167
        value: 0
        inSlope: 0
        outSlope: 0
        tangentMode: 0
      - time: .466666847
        value: 0
        inSlope: 0
        outSlope: 0
        tangentMode: 0
      - time: .483333528
        value: 0
        inSlope: 0
        outSlope: 0
        tangentMode: 0
      - time: .500000179
        value: 0
        inSlope: 0
        outSlope: 0
        tangentMode: 0
      - time: .51666683
        value: 0
        inSlope: 0
        outSlope: 0
        tangentMode: 0
      - time: .53333348
        value: 0
        inSlope: 0
        outSlope: 0
        tangentMode: 0
      - time: .550000131
        value: 0
        inSlope: 0
        outSlope: 0
        tangentMode: 0
      - time: .566666782
        value: 0
        inSlope: 0
        outSlope: 0
        tangentMode: 0
      - time: .583333433
        value: 0
        inSlope: 0
        outSlope: 0
        tangentMode: 0
      - time: .600000083
        value: 0
        inSlope: 0
        outSlope: 0
        tangentMode: 0
      - time: .616666734
        value: 0
        inSlope: 0
        outSlope: 0
        tangentMode: 0
      - time: .633333385
        value: 0
        inSlope: 0
        outSlope: 0
        tangentMode: 0
      - time: .650000036
        value: 0
        inSlope: 0
        outSlope: 0
        tangentMode: 0
      - time: .666666687
        value: 0
        inSlope: 0
        outSlope: 0
        tangentMode: 0
      - time: .683333337
        value: 0
        inSlope: 0
        outSlope: 0
        tangentMode: 0
      - time: .699999988
        value: 0
        inSlope: 0
        outSlope: 0
        tangentMode: 0
      - time: .716666639
        value: 0
        inSlope: 0
        outSlope: 0
        tangentMode: 0
      - time: .73333329
        value: 0
        inSlope: 0
        outSlope: 0
        tangentMode: 0
      - time: .75
        value: 0
        inSlope: 0
        outSlope: 0
        tangentMode: 0
      m_PreInfinity: 2
      m_PostInfinity: 2
    attribute: m_LocalRotation.z
    path: Hips/RightUpLeg
    classID: 4
    script: {fileID: 0}
  - curve:
      serializedVersion: 2
      m_Curve:
      - time: 0
        value: 1
        inSlope: -.0109648695
        outSlope: -.0109648695
        tangentMode: 0
      - time: .0166666675
        value: .999817252
        inSlope: -.0241845828
        outSlope: -.0241845828
        tangentMode: 0
      - time: .0333333351
        value: .999193847
        inSlope: -.0533455536
        outSlope: -.0533455536
        tangentMode: 0
      - time: .0500000045
        value: .998039067
        inSlope: -.0868749619
        outSlope: -.0868749619
        tangentMode: 0
      - time: .0666666701
        value: .996298015
        inSlope: -.12245895
        outSlope: -.12245895
        tangentMode: 0
      - time: .0833333358
        value: .993957102
        inSlope: -.157511845
        outSlope: -.157511845
        tangentMode: 0
      - time: .100000001
        value: .991047621
        inSlope: -.18931748
        outSlope: -.18931748
        tangentMode: 0
      - time: .116666667
        value: .98764652
        inSlope: -.215177506
        outSlope: -.215177506
        tangentMode: 0
      - time: .13333334
        value: .983875036
        inSlope: -.232552856
        outSlope: -.232552856
        tangentMode: 0
      - time: .150000006
        value: .979894757
        inSlope: -.239204779
        outSlope: -.239204779
        tangentMode: 0
      - time: .166666672
        value: .975901544
        inSlope: -.233328953
        outSlope: -.233328953
        tangentMode: 0
      - time: .183333337
        value: .972117126
        inSlope: -.213675514
        outSlope: -.213675514
        tangentMode: 0
      - time: .200000003
        value: .968779027
        inSlope: -.179679409
        outSlope: -.179679409
        tangentMode: 0
      - time: .216666669
        value: .966127813
        inSlope: -.131576672
        outSlope: -.131576672
        tangentMode: 0
      - time: .233333334
        value: .964393139
        inSlope: -.0705242231
        outSlope: -.0705242231
        tangentMode: 0
      - time: .25
        value: .963777006
        inSlope: 2.14409083e-05
        outSlope: 2.14409083e-05
        tangentMode: 0
      - time: .266666681
        value: .964393854
        inSlope: .0706010461
        outSlope: .0706010461
        tangentMode: 0
      - time: .283333361
        value: .966130376
        inSlope: .131707072
        outSlope: .131707072
        tangentMode: 0
      - time: .300000042
        value: .968784094
        inSlope: .179838389
        outSlope: .179838389
        tangentMode: 0
      - time: .316666722
        value: .972124994
        inSlope: .213834465
        outSlope: .213834465
        tangentMode: 0
      - time: .333333403
        value: .975911915
        inSlope: .233461067
        outSlope: .233461067
        tangentMode: 0
      - time: .350000083
        value: .979907036
        inSlope: .239293978
        outSlope: .239293978
        tangentMode: 0
      - time: .366666764
        value: .983888388
        inSlope: .232584879
        outSlope: .232584879
        tangentMode: 0
      - time: .383333445
        value: .987659872
        inSlope: .215146959
        outSlope: .215146959
        tangentMode: 0
      - time: .400000125
        value: .991059959
        inSlope: .189229697
        outSlope: .189229697
        tangentMode: 0
      - time: .416666806
        value: .993967533
        inSlope: .157379374
        outSlope: .157379374
        tangentMode: 0
      - time: .433333486
        value: .996305943
        inSlope: .122301474
        outSlope: .122301474
        tangentMode: 0
      - time: .450000167
        value: .998044252
        inSlope: .0867139548
        outSlope: .0867139548
        tangentMode: 0
      - time: .466666847
        value: .99919641
        inSlope: .0532114059
        outSlope: .0532114059
        tangentMode: 0
      - time: .483333528
        value: .999817967
        inSlope: .0241076853
        outSlope: .0241076853
        tangentMode: 0
      - time: .500000179
        value: 1
        inSlope: .000627637375
        outSlope: .000627637375
        tangentMode: 0
      - time: .51666683
        value: .999838889
        inSlope: -.0193190761
        outSlope: -.0193190761
        tangentMode: 0
      - time: .53333348
        value: .999356031
        inSlope: -.0386077538
        outSlope: -.0386077538
        tangentMode: 0
      - time: .550000131
        value: .998551965
        inSlope: -.0578570925
        outSlope: -.0578570925
        tangentMode: 0
      - time: .566666782
        value: .997427464
        inSlope: -.0770635158
        outSlope: -.0770635158
        tangentMode: 0
      - time: .583333433
        value: .995983183
        inSlope: -.0962288082
        outSlope: -.0962288082
        tangentMode: 0
      - time: .600000083
        value: .99421984
        inSlope: -.115352981
        outSlope: -.115352981
        tangentMode: 0
      - time: .616666734
        value: .992138088
        inSlope: -.134432435
        outSlope: -.134432435
        tangentMode: 0
      - time: .633333385
        value: .989738762
        inSlope: -.153463632
        outSlope: -.153463632
        tangentMode: 0
      - time: .650000036
        value: .987022638
        inSlope: -.17245011
        outSlope: -.17245011
        tangentMode: 0
      - time: .666666687
        value: .983990431
        inSlope: -.191390097
        outSlope: -.191390097
        tangentMode: 0
      - time: .683333337
        value: .980642974
        inSlope: -.210280031
        outSlope: -.210280031
        tangentMode: 0
      - time: .699999988
        value: .976981103
        inSlope: -.229118079
        outSlope: -.229118079
        tangentMode: 0
      - time: .716666639
        value: .973005712
        inSlope: -.247906089
        outSlope: -.247906089
        tangentMode: 0
      - time: .73333329
        value: .968717575
        inSlope: -.266641736
        outSlope: -.266641736
        tangentMode: 0
      - time: .75
        value: .964117646
        inSlope: -.275995016
        outSlope: -.275995016
        tangentMode: 0
      m_PreInfinity: 2
      m_PostInfinity: 2
    attribute: m_LocalRotation.w
    path: Hips/RightUpLeg
    classID: 4
    script: {fileID: 0}
  m_EulerEditorCurves:
  - curve:
      serializedVersion: 2
      m_Curve:
      - time: 0
        value: 0
        inSlope: -122.462646
        outSlope: -122.462646
        tangentMode: 10
      - time: .25
        value: -30.6156616
        inSlope: -60
        outSlope: -60
        tangentMode: 10
      - time: .5
        value: -30
        inSlope: 121.231323
        outSlope: 121.231323
        tangentMode: 10
      - time: .75
        value: 30
        inSlope: 240
        outSlope: 240
        tangentMode: 10
      m_PreInfinity: 2
      m_PostInfinity: 2
    attribute: localEulerAnglesBaked.x
    path: Hips/LeftUpLeg
    classID: 4
    script: {fileID: 0}
  - curve:
      serializedVersion: 2
      m_Curve:
      - time: 0
        value: 0
        inSlope: 0
        outSlope: 0
        tangentMode: 10
      - time: .25
        value: 0
        inSlope: 0
        outSlope: 0
        tangentMode: 10
      - time: .5
        value: 0
        inSlope: 0
        outSlope: 0
        tangentMode: 10
      - time: .75
        value: 0
        inSlope: 0
        outSlope: 0
        tangentMode: 10
      m_PreInfinity: 2
      m_PostInfinity: 2
    attribute: localEulerAnglesBaked.y
    path: Hips/LeftUpLeg
    classID: 4
    script: {fileID: 0}
  - curve:
      serializedVersion: 2
      m_Curve:
      - time: 0
        value: 0
        inSlope: 0
        outSlope: 0
        tangentMode: 10
      - time: .25
        value: 0
        inSlope: 0
        outSlope: 0
        tangentMode: 10
      - time: .5
        value: 0
        inSlope: 0
        outSlope: 0
        tangentMode: 10
      - time: .75
        value: 0
        inSlope: 0
        outSlope: 0
        tangentMode: 10
      m_PreInfinity: 2
      m_PostInfinity: 2
    attribute: localEulerAnglesBaked.z
    path: Hips/LeftUpLeg
    classID: 4
    script: {fileID: 0}
  - curve:
      serializedVersion: 2
      m_Curve:
      - time: 0
        value: 0
        inSlope: 123.748352
        outSlope: 123.748352
        tangentMode: 10
      - time: .25
        value: 30.937088
        inSlope: 0
        outSlope: 0
        tangentMode: 10
      - time: .5
        value: 0
        inSlope: -123.454956
        outSlope: -123.454956
        tangentMode: 10
      - time: .75
        value: -30.79039
        inSlope: -123.16156
        outSlope: -123.16156
        tangentMode: 10
      m_PreInfinity: 2
      m_PostInfinity: 2
    attribute: localEulerAnglesBaked.x
    path: Hips/RightUpLeg
    classID: 4
    script: {fileID: 0}
  - curve:
      serializedVersion: 2
      m_Curve:
      - time: 0
        value: 0
        inSlope: 0
        outSlope: 0
        tangentMode: 10
      - time: .25
        value: 0
        inSlope: 0
        outSlope: 0
        tangentMode: 10
      - time: .5
        value: 0
        inSlope: 0
        outSlope: 0
        tangentMode: 10
      - time: .75
        value: 0
        inSlope: 0
        outSlope: 0
        tangentMode: 10
      m_PreInfinity: 2
      m_PostInfinity: 2
    attribute: localEulerAnglesBaked.y
    path: Hips/RightUpLeg
    classID: 4
    script: {fileID: 0}
  - curve:
      serializedVersion: 2
      m_Curve:
      - time: 0
        value: 0
        inSlope: 0
        outSlope: 0
        tangentMode: 10
      - time: .25
        value: 0
        inSlope: 0
        outSlope: 0
        tangentMode: 10
      - time: .5
        value: 0
        inSlope: 0
        outSlope: 0
        tangentMode: 10
      - time: .75
        value: 0
        inSlope: 0
        outSlope: 0
        tangentMode: 10
      m_PreInfinity: 2
      m_PostInfinity: 2
    attribute: localEulerAnglesBaked.z
    path: Hips/RightUpLeg
    classID: 4
    script: {fileID: 0}
  m_Events:
  - time: 0
    functionName: 
    data: 
    objectReferenceParameter: {fileID: 0}
    floatParameter: 0
    intParameter: 0
    messageOptions: 0
  - time: 0
    functionName: 
    data: 
    objectReferenceParameter: {fileID: 0}
    floatParameter: 0
    intParameter: 0
    messageOptions: 0
  - time: 0
    functionName: 
    data: 
    objectReferenceParameter: {fileID: 0}
    floatParameter: 0
    intParameter: 0
    messageOptions: 0
